digraph G {

start->initial;

initial[label="LCG > 85+ ?"];

lcg_release_tar[label=<lcg_release_tar<br/>
        <FONT POINT-SIZE="10">prefix = None<br/>jenkins = master<br/>RPMS_CREATION=ON</FONT>>];

lcg_release_api[label=<lcg_release_api<br/>
        <FONT POINT-SIZE="10">prefix = existing packages<br/>jenkins = cmake2.8</FONT>>];


lcg_cvmfs_install[label=<lcg_cvmfs_install<br/>
    <FONT POINT-SIZE="10">BUILDMODE=release</FONT><br/>
    <FONT POINT-SIZE="10">if ubuntu then COMPILER=native</FONT><br/>>];


initial -> lcg_release_tar[label="yes"];

initial -> "release == 67c ?"[label="no"];

lcg_release_tar -> lcg_release_api[label="NO PARALLEL!!!", dir=none,constraint=none];

lcg_release_tar -> lcg_cvmfs_install;

"release == 67c ?" -> lcg_release_api[label="no"];

"release == 67c ?" -> "manual installation"[label="yes"];

"lcg_cvmfs_install" -> "complete_rpms_release_actions";

"complete_rpms_release_actions" -> end;

lcg_release_api -> "lcg_release_installToAll_dbg_api: AFS";

"lcg_release_installToAll_dbg_api: AFS" -> "lcg_release_installToAll_dbg_api: CVMFS";

"lcg_release_installToAll_dbg_api: CVMFS" -> end;

"manual installation" -> end;

start [shape=Mdiamond];

end [shape=Msquare];

{rank=same; lcg_release_api lcg_release_tar "manual installation"};

}